<?xml version="1.0" encoding="UTF-8" standalone="no"?>
<!-- Created with Inkscape (http://www.inkscape.org/) -->

<svg
   xmlns:dc="http://purl.org/dc/elements/1.1/"
   xmlns:cc="http://creativecommons.org/ns#"
   xmlns:rdf="http://www.w3.org/1999/02/22-rdf-syntax-ns#"
   xmlns:svg="http://www.w3.org/2000/svg"
   xmlns="http://www.w3.org/2000/svg"
   xmlns:sodipodi="http://sodipodi.sourceforge.net/DTD/sodipodi-0.dtd"
   xmlns:inkscape="http://www.inkscape.org/namespaces/inkscape"
   id="svg2"
   version="1.1"
   inkscape:version="0.91 r13725"
   xml:space="preserve"
   width="245.25172"
   height="223.63383"
   viewBox="0 0 245.25172 223.63384"
   sodipodi:docname="eTlogo_simple_dark.svg"><metadata
     id="metadata8"><rdf:RDF><cc:Work
         rdf:about=""><dc:format>image/svg+xml</dc:format><dc:type
           rdf:resource="http://purl.org/dc/dcmitype/StillImage" /><dc:title></dc:title></cc:Work></rdf:RDF></metadata><defs
     id="defs6" /><sodipodi:namedview
     pagecolor="#ffffff"
     bordercolor="#666666"
     borderopacity="1"
     objecttolerance="10"
     gridtolerance="10"
     guidetolerance="10"
     inkscape:pageopacity="0"
     inkscape:pageshadow="2"
     inkscape:window-width="1280"
     inkscape:window-height="726"
     id="namedview4"
     showgrid="false"
     fit-margin-top="0"
     fit-margin-left="0"
     fit-margin-right="0"
     fit-margin-bottom="0"
     inkscape:zoom="1.5089515"
     inkscape:cx="52.068249"
     inkscape:cy="96.068412"
     inkscape:window-x="0"
     inkscape:window-y="0"
     inkscape:window-maximized="0"
     inkscape:current-layer="g10" /><g
     id="g10"
     inkscape:groupmode="layer"
     inkscape:label="ink_ext_XXXXXX"
     transform="matrix(1.25,0,0,-1.25,241.66379,313.55645)"><g
       transform="matrix(2.9078994,0,0,2.9078994,-269.48383,-3.78503)"
       id="g1200"
       style="fill:#1e6432;fill-opacity:1"><g
         transform="matrix(1,0,0,-1,59.3105,57.9605)"
         style="font-style:italic;font-variant:normal;font-size:43px;font-family:Baskerville;-inkscape-font-specification:Baskerville-Italic;writing-mode:lr-tb;fill:#416e7d;fill-opacity:1;fill-rule:nonzero;stroke:none"
         id="text1202"><path
           d="m 22.234863,-26.665039 -6.4458,21.2060546 q -0.608887,1.9946289 -0.608887,2.4985352 0,1.0498047 0.902832,1.5327148 0.923828,0.46191409 2.057617,0.46191409 l 0.755859,0 L 18.602539,0 6.4038086,0 l 0.2939453,-0.96582031 0.6298828,0 q 1.3227539,0 2.2465821,-0.44091799 0.9448242,-0.461914 1.3227542,-1.112793 0.398925,-0.671875 1.091797,-2.8974609 l 6.550781,-21.4999998 q -3.485352,-0.314942 -5.920899,-0.314942 -2.6455075,0 -3.9682614,0.440918 -1.3227539,0.440918 -1.3227539,1.322754 0,0.335938 0.230957,0.944825 0.209961,0.58789 0.209961,0.881835 0,0.566895 -0.4199219,0.986817 -0.3989258,0.398926 -1.0498047,0.398926 -0.8188476,0 -1.2807617,-0.629883 -0.440918,-0.629883 -0.440918,-1.406738 0,-1.679688 1.8896485,-2.918457 1.9106445,-1.259766 6.6977541,-1.259766 2.456543,0 9.322265,0.566894 4.913086,0.419922 7.369629,0.419922 2.351563,0 2.603516,-1.238769 0.167969,-0.881836 0.881836,-0.881836 1.007812,0 1.007812,1.070801 0,2.288574 -4.850097,2.288574 -2.309571,0 -7.264649,-0.419922 z"
           style="fill:#416e7d;fill-opacity:1"
           id="path4164" /></g></g><g
       transform="matrix(2.9078994,0,0,2.9078994,-255.52591,-45.658782)"
       id="g1206"><g
         transform="matrix(1,0,0,-1,18.232,41.6734)"
         style="font-style:italic;font-variant:normal;font-size:101px;font-family:Times;-inkscape-font-specification:Times-Italic;writing-mode:lr-tb;fill:#002346;fill-opacity:1;fill-rule:nonzero;stroke:none"
         id="text1208"><path
           d="m 3.15625,-13.068848 q 0,-10.948242 9.863281,-21.206054 9.764649,-10.257813 20.17041,-10.257813 3.84668,0 6.115235,1.775391 2.268554,1.77539 2.268554,5.276855 0,7.101563 -8.334472,12.181153 -8.285156,5.030273 -17.458008,6.16455 l -2.811035,0.345215 q -0.641113,2.021973 -0.887695,3.254883 -0.246582,1.183594 -0.246582,3.008301 0,4.3398436 2.811035,6.7563475 2.860351,2.4165039 6.756347,2.4165039 3.698731,0 7.841309,-2.4658203 2.367187,-1.4301758 6.85498,-5.1289061 l 1.282227,1.1342772 q -2.219238,2.8110351 -6.361816,5.7700195 -7.348145,5.2768555 -14.745606,5.2768555 -5.227539,0 -9.1728515,-3.6987305 Q 3.15625,-6.1645508 3.15625,-13.068848 Z m 10.504395,-7.939941 q 9.419433,-1.380859 15.337402,-6.608398 5.917969,-5.276856 5.917969,-10.455079 0,-1.874023 -0.887696,-2.958984 -0.887695,-1.134277 -2.613769,-1.134277 -3.205567,0 -6.3125,2.761718 -3.057617,2.712403 -5.523438,6.164551 -2.613769,4.043946 -4.142578,7.742676 -0.838379,1.972656 -1.77539,4.487793 z"
           style="fill:#002346;fill-opacity:1;stroke:none;stroke-opacity:1"
           id="path4167" /></g></g><ellipse
       style="opacity:1;fill:none;fill-opacity:1;stroke:none;stroke-width:1.60000002;stroke-miterlimit:4;stroke-dasharray:none;stroke-dashoffset:0;stroke-opacity:1"
       id="path5348"
       cx="-133.48027"
       cy="-159.46616"
       transform="scale(1,-1)"
       rx="50.028458"
       ry="45.424618" /><text
       xml:space="preserve"
       style="font-style:normal;font-weight:normal;font-size:24px;line-height:125%;font-family:sans-serif;letter-spacing:0px;word-spacing:0px;fill:#000000;fill-opacity:1;stroke:none;stroke-width:1px;stroke-linecap:butt;stroke-linejoin:miter;stroke-opacity:1"
       x="98.262161"
       y="-85.192329"
       id="text4159"
       sodipodi:linespacing="125%"
       transform="scale(1,-1)"><tspan
         sodipodi:role="line"
         id="tspan4161"
         x="98.262161"
         y="-85.192329" /></text>
<text
       xml:space="preserve"
       style="font-style:normal;font-weight:normal;font-size:24px;line-height:125%;font-family:sans-serif;letter-spacing:0px;word-spacing:0px;fill:#000000;fill-opacity:1;stroke:none;stroke-width:1px;stroke-linecap:butt;stroke-linejoin:miter;stroke-opacity:1"
       x="29.340137"
       y="-119.12318"
       id="text4163"
       sodipodi:linespacing="125%"
       transform="scale(1,-1)"><tspan
         sodipodi:role="line"
         id="tspan4165"
         x="29.340137"
         y="-119.12318" /></text>
</g></svg>